{
  "selectors": [
    {
      "parentSelectors": [
        "_root"
      ],
      "type": "SelectorText",
      "multiple": false,
      "id": "tooltip",
      "selector": "h2 p",
      "regex": "",
      "delay": ""
    },
    {
      "parentSelectors": [
        "_root"
      ],
      "type": "SelectorText",
      "multiple": false,
      "id": "ref",
      "selector": "div.ssid",
      "regex": "",
      "delay": ""
    },
    {
      "parentSelectors": [
        "_root"
      ],
      "type": "SelectorText",
      "multiple": false,
      "id": "name",
      "selector": "h1.uppercase",
      "regex": "",
      "delay": ""
    },
    {
      "parentSelectors": [
        "_root"
      ],
      "type": "SelectorText",
      "multiple": false,
      "id": "usp",
      "selector": "div.span7 h2",
      "regex": "",
      "delay": ""
    },
    {
      "parentSelectors": [
        "_root"
      ],
      "type": "SelectorText",
      "multiple": false,
      "id": "main_marketing",
      "selector": "div.span7 p",
      "regex": "",
      "delay": ""
    },
    {
      "parentSelectors": [
        "_root"
      ],
      "type": "SelectorText",
      "multiple": false,
      "id": "key_features",
      "selector": "div.tab-pane div.span6:nth-of-type(1) > div",
      "regex": "",
      "delay": ""
    },
    {
      "parentSelectors": [
        "_root"
      ],
      "type": "SelectorText",
      "multiple": false,
      "id": "whats_in_the_box",
      "selector": "tr:contains('What's in the box?') p",
      "regex": "",
      "delay": ""
    },
    {
      "parentSelectors": [
        "_root"
      ],
      "type": "SelectorImage",
      "multiple": false,
      "id": "smallimage",
      "selector": "div.span6 img.img-responsive",
      "downloadImage": false,
      "delay": ""
    },
    {
      "parentSelectors": [
        "_root"
      ],
      "type": "SelectorText",
      "multiple": false,
      "id": "spec",
      "selector": "div.section_heading span",
      "regex": "",
      "delay": ""
    }
  ],
  "startUrl": [
  
	"http://www.suunto.com/Products/sports-watches/Suunto-Traverse-Alpha/Suunto-Traverse-Alpha-Foliage/",
	"http://www.suunto.com/Products/sports-watches/Suunto-Traverse-Alpha/Suunto-Traverse-Alpha-Stealth/",
	"http://www.suunto.com/Products/sports-watches/Suunto-Traverse/Suunto-Traverse-Sapphire-Black/",
	"http://www.suunto.com/Products/sports-watches/Suunto-Ambit3-Vertical/Suunto-Ambit3-Vertical-Lime-HR/",
	"http://www.suunto.com/Products/sports-watches/Suunto-Ambit3-Vertical/Suunto-Ambit3-Vertical-Lime/",
	"http://www.suunto.com/Products/sports-watches/Suunto-Ambit3-Vertical/Suunto-Ambit3-Vertical-Blue-HR/",
	"http://www.suunto.com/Products/sports-watches/Suunto-Ambit3-Vertical/Suunto-Ambit3-Vertical-Blue/",
	"http://www.suunto.com/Products/sports-watches/Suunto-Ambit3-Vertical/Suunto-Ambit3-Vertical-White-HR/",
	"http://www.suunto.com/Products/sports-watches/Suunto-Ambit3-Vertical/Suunto-Ambit3-Vertical-White/",
	"http://www.suunto.com/Products/sports-watches/Suunto-Ambit3-Vertical/Suunto-Ambit3-Vertical-Black-HR/",
	"http://www.suunto.com/Products/sports-watches/Suunto-Ambit3-Vertical/Suunto-Ambit3-Vertical-Black/",
	"http://www.suunto.com/Products/sports-watches/Suunto-Traverse/Suunto-Traverse-Amber/",
	"http://www.suunto.com/Products/sports-watches/Suunto-Traverse/Suunto-Traverse-Black/",
	"http://www.suunto.com/Products/sports-watches/Suunto-Traverse/Suunto-Traverse-White/",
	"http://www.suunto.com/Products/sports-watches/Suunto-Traverse/Suunto-Traverse-Graphite/",
	"http://www.suunto.com/Products/sports-watches/Suunto-Ambit3-Peak/Suunto-Ambit3-Peak-Black/",
	"http://www.suunto.com/Products/sports-watches/Suunto-Ambit3-Peak/Suunto-Ambit3-Peak-Black-HR/",
	"http://www.suunto.com/Products/sports-watches/Suunto-Ambit3-Peak/Suunto-Ambit3-Peak-Sapphire/",
	"http://www.suunto.com/Products/sports-watches/Suunto-Ambit3-Peak/Suunto-Ambit3-Peak-Sapphire-HR/",
	"http://www.suunto.com/Products/sports-watches/Suunto-Ambit3-Peak/Suunto-Ambit3-Peak-Sapphire-Blue/",
	"http://www.suunto.com/Products/sports-watches/Suunto-Ambit3-Peak/Suunto-Ambit3-Peak-Sapphire-Blue-HR/",
	"http://www.suunto.com/Products/sports-watches/Suunto-Ambit3-Peak/Suunto-Ambit3-Peak-Nepal-Edition/",
	"http://www.suunto.com/Products/sports-watches/Suunto-Ambit3-Sport/Suunto-Ambit3-Sport-Sapphire/",
	"http://www.suunto.com/Products/sports-watches/Suunto-Ambit3-Sport/Suunto-Ambit3-Sport-Sapphire-HR/",
	"http://www.suunto.com/Products/sports-watches/Suunto-Ambit3-Sport/Suunto-Ambit3-Sport-White/",
	"http://www.suunto.com/Products/sports-watches/Suunto-Ambit3-Sport/Suunto-Ambit3-Sport-White-Hr/",
	"http://www.suunto.com/Products/sports-watches/Suunto-Ambit3-Sport/Suunto-Ambit3-Sport-Coral-HR/",
	"http://www.suunto.com/Products/sports-watches/Suunto-Ambit3-Sport/Suunto-Ambit3-Sport-Coral/",
	"http://www.suunto.com/Products/sports-watches/Suunto-Ambit3-Sport/Suunto-Ambit3-Sport-Blue/",
	"http://www.suunto.com/Products/sports-watches/Suunto-Ambit3-Sport/Suunto-Ambit3-Sport-Blue-Hr/",
	"http://www.suunto.com/Products/sports-watches/Suunto-Ambit3-Sport/Suunto-Ambit3-Sport-Black/",
	"http://www.suunto.com/Products/sports-watches/Suunto-Ambit3-Sport/Suunto-Ambit3-Sport-Black-HR/",
	"http://www.suunto.com/Products/sports-watches/Suunto-Ambit3-Run/Suunto-Ambit3-Run-Lime-HR/",
	"http://www.suunto.com/Products/sports-watches/Suunto-Ambit3-Run/Suunto-Ambit3-Run-Lime/",
	"http://www.suunto.com/Products/sports-watches/Suunto-Ambit3-Run/Suunto-Ambit3-Run-White-HR/",
	"http://www.suunto.com/Products/sports-watches/Suunto-Ambit3-Run/Suunto-Ambit3-Run-White/",
	"http://www.suunto.com/Products/sports-watches/Suunto-Ambit3-Run/Suunto-Ambit3-Run-Black-HR/",
	"http://www.suunto.com/Products/sports-watches/Suunto-Ambit3-Run/Suunto-Ambit3-Run-Black/",
	"http://www.suunto.com/Products/Straps/Suunto-Traverse-Alpha-Foliage-Textile-Strap-Kit/",
	"http://www.suunto.com/Products/Straps/Suunto-Traverse-Alpha-Stealth-Textile-Strap-Kit/",
	"http://www.suunto.com/Products/Straps/Suunto-Traverse-Amber-Silicone-Strap/",
	"http://www.suunto.com/Products/Straps/Suunto-Traverse-Black-Silicone-Strap/",
	"http://www.suunto.com/Products/Straps/Suunto-Traverse-Graphite-Silicone-Strap/",
	"http://www.suunto.com/Products/Straps/Suunto-Traverse-White-Silicone-Strap/",
	"http://www.suunto.com/Products/Straps/Suunto-Ambit3-Vertical-White-Silicone-Strap/",
	"http://www.suunto.com/Products/Straps/Suunto-Ambit3-Vertical-Lime-Silicone-Strap/",
	"http://www.suunto.com/Products/Straps/Suunto-Ambit3-Vertical-Blue-Silicone-Strap/",
	"http://www.suunto.com/Products/Straps/Suunto-Ambit3-Vertical-Black-Silicone-Strap/",
	"http://www.suunto.com/Products/Straps/Suunto-Ambit3-Peak-Sapphire-Silicone-Strap/",
	"http://www.suunto.com/Products/Straps/Suunto-Ambit3-Peak-Black-Strap/",
	"http://www.suunto.com/Products/Straps/Suunto-Ambit3-Peak-Sapphire-Blue-Silicone-Strap/",
	"http://www.suunto.com/Products/Straps/AMBIT2-SAPPHIRE-STRAP/",
	"http://www.suunto.com/Products/Straps/Suunto-Ambit3-Sport-Black-Silicone-Strap/",
	"http://www.suunto.com/Products/Straps/Suunto-Ambit3-Sport-Black-Strap/",
	"http://www.suunto.com/Products/Straps/Suunto-Ambit3-Sport-Blue-Silicone-Strap/",
	"http://www.suunto.com/Products/Straps/Suunto-Ambit3-Sport-Sapphire-Silicone-Strap/",
	"http://www.suunto.com/Products/Straps/Suunto-Ambit3-Sport-Coral-Silicone-Strap/",
	"http://www.suunto.com/Products/Straps/Suunto-Ambit3-Run-Lime-Silicone-Strap/",
	"http://www.suunto.com/Products/Straps/Suunto-Ambit3-Run-Black-Strap/",
	"http://www.suunto.com/Products/Straps/Suunto-Ambit3-Sport-White-Silicone-Strap/",
	"http://www.suunto.com/Products/Straps/AMBIT2-S-RED-STRAP/",
	"http://www.suunto.com/Products/sports-watches/Suunto-Ambit2/Suunto-Ambit2-Sapphire/",
	"http://www.suunto.com/Products/sports-watches/Suunto-Ambit2-S/Suunto-Ambit2-S-Black-Limited-Edition/",
	"http://www.suunto.com/Products/sports-watches/Suunto-Ambit2/Suunto-Ambit2-Black/",
	"http://www.suunto.com/Products/sports-watches/Suunto-Ambit2-R/Suunto-Ambit2-R-Black/",
	"http://www.suunto.com/Products/sports-watches/Suunto-Ambit/Suunto-Ambit-Black/",
	"http://www.suunto.com/Products/sports-watches/Suunto-Ambit2-R/Suunto-Ambit2-R-White/",
	"http://www.suunto.com/Products/sports-watches/Suunto-Ambit2-S/Suunto-Ambit2-S-Red/",
	"http://www.suunto.com/Products/sports-watches/Suunto-Ambit2/Suunto-Ambit2-Sapphire-HR/",
	"http://www.suunto.com/Products/sports-watches/Suunto-Ambit2/Suunto-Ambit2-Black-HR/",
	"http://www.suunto.com/Products/sports-watches/Suunto-Ambit2/Suunto-Ambit2-Silver/",
	"http://www.suunto.com/Products/sports-watches/Suunto-Ambit2/Suunto-Ambit2-Silver-HR/",
	"http://www.suunto.com/Products/sports-watches/Suunto-Ambit2-S/Suunto-Ambit2-S-White/",
	"http://www.suunto.com/Products/sports-watches/Suunto-Ambit2-S/Suunto-Ambit2-S-White-HR/",
	"http://www.suunto.com/Products/sports-watches/Suunto-Ambit2-S/Suunto-Ambit2-S-Graphite/",
	"http://www.suunto.com/Products/sports-watches/Suunto-Ambit2-S/Suunto-Ambit2-S-Graphite-HR/",
	"http://www.suunto.com/Products/sports-watches/Suunto-Ambit2-R/Suunto-Ambit2-R-Black-HR/",
	"http://www.suunto.com/Products/sports-watches/Suunto-Ambit2-S/Suunto-Ambit2-S-Black-HR-Limited-Edition/",
	"http://www.suunto.com/Products/sports-watches/Suunto-Ambit2-S/Suunto-Ambit2-S-Red-HR/",
	"http://www.suunto.com/Products/sports-watches/Suunto-Ambit2-S/Suunto-Ambit2-S-Lime/",
	"http://www.suunto.com/Products/sports-watches/Suunto-Ambit2-S/Suunto-Ambit2-S-Lime-HR/",
	"http://www.suunto.com/Products/sports-watches/Suunto-Ambit2-R/Suunto-Ambit2-R-White-HR/",
	"http://www.suunto.com/Products/sports-watches/Suunto-Ambit/Suunto-Ambit-Black-HR/",
	"http://www.suunto.com/Products/sports-watches/Suunto-Ambit/Suunto-Ambit-Silver/",
	"http://www.suunto.com/Products/sports-watches/Suunto-Ambit/Suunto-Ambit-Silver-HR/",
	"http://www.suunto.com/Products/Straps/Ambit-Black-Strap/",
	"http://www.suunto.com/Products/Straps/Ambit-Silver-Strap/"

  ],
  "_id": "ambit_traverse"
}
