{
  "selectors": [
    {
      "parentSelectors": [
        "_root"
      ],
      "type": "SelectorText",
      "multiple": false,
      "id": "tooltip",
      "selector": "h2 p",
      "regex": "",
      "delay": ""
    },
    {
      "parentSelectors": [
        "_root"
      ],
      "type": "SelectorText",
      "multiple": false,
      "id": "ref",
      "selector": "div.ssid",
      "regex": "",
      "delay": ""
    },
    {
      "parentSelectors": [
        "_root"
      ],
      "type": "SelectorText",
      "multiple": false,
      "id": "name",
      "selector": "h1.uppercase",
      "regex": "",
      "delay": ""
    },
    {
      "parentSelectors": [
        "_root"
      ],
      "type": "SelectorText",
      "multiple": false,
      "id": "usp",
      "selector": "div.span7 h2",
      "regex": "",
      "delay": ""
    },
    {
      "parentSelectors": [
        "_root"
      ],
      "type": "SelectorText",
      "multiple": false,
      "id": "main_marketing",
      "selector": "div.span7 p",
      "regex": "",
      "delay": ""
    },
    {
      "parentSelectors": [
        "_root"
      ],
      "type": "SelectorText",
      "multiple": false,
      "id": "key_features",
      "selector": "div.tab-pane div.span6:nth-of-type(1) > div",
      "regex": "",
      "delay": ""
    },
    {
      "parentSelectors": [
        "_root"
      ],
      "type": "SelectorText",
      "multiple": false,
      "id": "whats_in_the_box",
      "selector": "tr:contains('What's in the box?') p",
      "regex": "",
      "delay": ""
    },
    {
      "parentSelectors": [
        "_root"
      ],
      "type": "SelectorImage",
      "multiple": false,
      "id": "smallimage",
      "selector": "div.span6 img.img-responsive",
      "downloadImage": false,
      "delay": ""
    },
    {
      "parentSelectors": [
        "_root"
      ],
      "type": "SelectorText",
      "multiple": false,
      "id": "spec",
      "selector": "div.section_heading span",
      "regex": "",
      "delay": ""
    }
  ],
  "startUrl": [
  
"http://www.suunto.com/Products/sports-watches/Suunto-Core/Suunto-Core-Brushed-Steel/",
"http://www.suunto.com/Products/sports-watches/Suunto-Core/Suunto-Core-Alu-Pure-White/",
"http://www.suunto.com/Products/sports-watches/Suunto-Core/Suunto-Core-Alu-Deep-Black/",
"http://www.suunto.com/Products/sports-watches/Suunto-Core/Suunto-Core-Ultimate-Black/",
"http://www.suunto.com/Products/sports-watches/Suunto-Core/Suunto-Core-All-Black/",
"http://www.suunto.com/Products/sports-watches/Suunto-Core/Suunto-Core-Regular-Black/",
"http://www.suunto.com/Products/sports-watches/Suunto-Core/Suunto-Core-Glacier-Gray/",
"http://www.suunto.com/Products/sports-watches/Suunto-Core/Suunto-Core-Graphite-Crush/",
"http://www.suunto.com/Products/sports-watches/Suunto-Core/Suunto-Core-Blue-Crush/",
"http://www.suunto.com/Products/sports-watches/Suunto-Core/Suunto-Core-White-Crush/",
"http://www.suunto.com/Products/sports-watches/Suunto-Core/Suunto-Core-Lime-Crush/",
"http://www.suunto.com/Products/sports-watches/Suunto-Core/Suunto-Core-Gray-Crush/",
"http://www.suunto.com/Products/sports-watches/Suunto-Core/Suunto-Core-Coral-Crush/",
"http://www.suunto.com/Products/Straps/Suunto-Core-Black-Flat-Silicone-Strap/",
"http://www.suunto.com/Products/Straps/Core-All-Black-Light-Elastomer-Strap/",
"http://www.suunto.com/Products/Straps/Core-All-Black-Standard-Strap/",
"http://www.suunto.com/Products/Straps/Suunto-Core-Black-Silicone-Strap/",
"http://www.suunto.com/Products/Straps/Suunto-Core-Coral-Silicone-Strap/",
"http://www.suunto.com/Products/Straps/Suunto-Core-Gray-Silicone-Strap/",
"http://www.suunto.com/Products/Straps/Suunto-Core-Lime-Silicone-Strap/",
"http://www.suunto.com/Products/Straps/Suunto-Core-White-Flat-Silicone-Strap/",
"http://www.suunto.com/Products/Straps/Core-Blue-Rubber-Strap/",
"http://www.suunto.com/Products/Straps/Suunto-Core-White-Silicone-Strap/",
"http://www.suunto.com/Products/Straps/Core-Yellow-Rubber-Strap/",
"http://www.suunto.com/Products/Straps/Core-Green-Rubber-Strap/",
"http://www.suunto.com/Products/Straps/Core-Red-Rubber-Strap/",
"http://www.suunto.com/Products/Straps/Core-Violet-Rubber-Strap/",
"http://www.suunto.com/Products/Straps/Core-Light-Elastomer-Strap-Black/",
"http://www.suunto.com/Products/Straps/Core-Standard-Elastomer-Strap-Black/",
"http://www.suunto.com/Products/Straps/Core-Flat-Elastomer-Strap-Black/",
"http://www.suunto.com/Products/Straps/Core-Flat-Elastomer-Strap-Orange/",
"http://www.suunto.com/Products/Straps/Core-Leather-Black-Matt-Strap/",
"http://www.suunto.com/Products/Straps/Core-Leather-Strap-Brown/",
"http://www.suunto.com/Products/Battery-kits/Core-Lumi-t4-t3-t1-Battery-Kit/",
"http://www.suunto.com/Products/sports-watches/Suunto-Core/Suunto-Core-Green-Crush/",
"http://www.suunto.com/Products/sports-watches/Suunto-Core/Suunto-Core-Red-Crush/",
"http://www.suunto.com/Products/sports-watches/Suunto-Core/Suunto-Core-Yellow-Crush/",
"http://www.suunto.com/Products/sports-watches/Suunto-Core/Suunto-Core-Violet-Crush/",
"http://www.suunto.com/Products/sports-watches/Suunto-Core/Suunto-Core-Blue-Crush-2013/",
"http://www.suunto.com/Products/sports-watches/Suunto-Core/Suunto-Core-Lava-Red/",
"http://www.suunto.com/Products/sports-watches/Suunto-Core/Suunto-Core-Sahara-Yellow/",
"http://www.suunto.com/Products/sports-watches/Suunto-Core/Suunto-Core-Alpine-Edition/",
"http://www.suunto.com/Products/sports-watches/Suunto-Core/Suunto-Core-Alu-Alu/",
"http://www.suunto.com/Products/sports-watches/Suunto-Core/Suunto-Core-Alu-Black/",
"http://www.suunto.com/Products/sports-watches/Suunto-Core/Suunto-Core-Alu-Brown/",
"http://www.suunto.com/Products/sports-watches/Suunto-Core/Suunto-Core-Alu-Light/",
"http://www.suunto.com/Products/sports-watches/Suunto-Core/Suunto-Core-Anniversary-Edition/",
"http://www.suunto.com/Products/sports-watches/Suunto-Core/Suunto-Core-Black-Orange/",
"http://www.suunto.com/Products/sports-watches/Suunto-Core/Suunto-Core-Black-Yellow/",
"http://www.suunto.com/Products/sports-watches/Suunto-Core/Suunto-Core-Extreme-Edition-Red/",
"http://www.suunto.com/Products/sports-watches/Suunto-Core/Suunto-Core-Extreme-Edition-Silver/",
"http://www.suunto.com/Products/sports-watches/Suunto-Core/Suunto-Core-Steel-Steel/",
"http://www.suunto.com/Products/sports-watches/Suunto-Core/Suunto-Core-Orange-Black/",
"http://www.suunto.com/Products/sports-watches/Suunto-Core/Suunto-Core-Light-Green/",
"http://www.suunto.com/Products/sports-watches/Suunto-Core/Suunto-Core-Light-Black/"

  ],
  "_id": "core"
}
