{
  "selectors": [
    {
      "parentSelectors": [
        "_root"
      ],
      "type": "SelectorText",
      "multiple": false,
      "id": "tooltip",
      "selector": "h2 p",
      "regex": "",
      "delay": ""
    },
    {
      "parentSelectors": [
        "_root"
      ],
      "type": "SelectorText",
      "multiple": false,
      "id": "ref",
      "selector": "div.ssid",
      "regex": "",
      "delay": ""
    },
    {
      "parentSelectors": [
        "_root"
      ],
      "type": "SelectorText",
      "multiple": false,
      "id": "name",
      "selector": "h1.uppercase",
      "regex": "",
      "delay": ""
    },
    {
      "parentSelectors": [
        "_root"
      ],
      "type": "SelectorText",
      "multiple": false,
      "id": "usp",
      "selector": "div.span7 h2",
      "regex": "",
      "delay": ""
    },
    {
      "parentSelectors": [
        "_root"
      ],
      "type": "SelectorText",
      "multiple": false,
      "id": "main_marketing",
      "selector": "div.span7 p",
      "regex": "",
      "delay": ""
    },
    {
      "parentSelectors": [
        "_root"
      ],
      "type": "SelectorText",
      "multiple": false,
      "id": "key_features",
      "selector": "div.tab-pane div.span6:nth-of-type(1) > div",
      "regex": "",
      "delay": ""
    },
    {
      "parentSelectors": [
        "_root"
      ],
      "type": "SelectorText",
      "multiple": false,
      "id": "whats_in_the_box",
      "selector": "tr:contains('What's in the box?') p",
      "regex": "",
      "delay": ""
    },
    {
      "parentSelectors": [
        "_root"
      ],
      "type": "SelectorImage",
      "multiple": false,
      "id": "smallimage",
      "selector": "div.span6 img.img-responsive",
      "downloadImage": false,
      "delay": ""
    },
    {
      "parentSelectors": [
        "_root"
      ],
      "type": "SelectorText",
      "multiple": false,
      "id": "spec",
      "selector": "div.section_heading span",
      "regex": "",
      "delay": ""
    }
  ],
  "startUrl": [
    "http://www.suunto.com/Products/sports-watches/Suunto-Spartan-Ultra/Suunto-Spartan-Ultra-All-Black-Titanium-HR/",
    "http://www.suunto.com/Products/sports-watches/Suunto-Spartan-Ultra/Suunto-Spartan-Ultra-All-Black-Titanium/",
    "http://www.suunto.com/Products/sports-watches/Suunto-Spartan-Ultra/Suunto-Spartan-Ultra-Stealth-Titanium-HR/",
    "http://www.suunto.com/Products/sports-watches/Suunto-Spartan-Ultra/Suunto-Spartan-Ultra-Stealth-Titanium/",
    "http://www.suunto.com/Products/sports-watches/Suunto-Spartan-Ultra/Suunto-Spartan-Ultra-Black-HR/",
    "http://www.suunto.com/Products/sports-watches/Suunto-Spartan-Ultra/Suunto-Spartan-Ultra-Black/",
    "http://www.suunto.com/Products/sports-watches/Suunto-Spartan-Ultra/Suunto-Spartan-Ultra-White-HR/",
    "http://www.suunto.com/Products/sports-watches/Suunto-Spartan-Ultra/Suunto-Spartan-Ultra-White/",
    "http://www.suunto.com/Products/sports-watches/Suunto-Spartan-Sport/Suunto-Spartan-Sport-Blue-HR/",
    "http://www.suunto.com/Products/sports-watches/Suunto-Spartan-Sport/Suunto-Spartan-Sport-Blue/",
    "http://www.suunto.com/Products/sports-watches/Suunto-Spartan-Sport/Suunto-Spartan-Sport-Black-HR/",
    "http://www.suunto.com/Products/sports-watches/Suunto-Spartan-Sport/Suunto-Spartan-Sport-Black/",
    "http://www.suunto.com/Products/sports-watches/Suunto-Spartan-Sport/Suunto-Spartan-Sport-Sakura-HR/",
    "http://www.suunto.com/Products/sports-watches/Suunto-Spartan-Sport/Suunto-Spartan-Sport-Sakura/",
    "http://www.suunto.com/Products/sports-watches/Suunto-Spartan-Sport/Suunto-Spartan-Sport-White-HR/",
    "http://www.suunto.com/Products/sports-watches/Suunto-Spartan-Sport/Suunto-Spartan-Sport-White/",
    "http://www.suunto.com/Products/Straps/Suunto-Spartan-Ultra-White-Silicone-Strap/",
    "http://www.suunto.com/Products/Straps/Suunto-Spartan-Ultra-Stealth-Silicone-Strap/",
    "http://www.suunto.com/Products/Straps/Suunto-Spartan-Ultra-Black-Silicone-Strap/",
    "http://www.suunto.com/Products/Straps/Suunto-Spartan-Ultra-All-Black-Silicone-Strap/",
    "http://www.suunto.com/Products/Straps/Suunto-Spartan-Sport-Black-Silicone-Strap/",
    "http://www.suunto.com/Products/Straps/Suunto-Spartan-Sport-Blue-Silicone-Strap/",
    "http://www.suunto.com/Products/Straps/Suunto-Spartan-Sport-Sakura-Silicone-Strap/",
    "http://www.suunto.com/Products/Straps/Suunto-Spartan-Sport-White-Silicone-Strap/"
  ],
  "_id": "spartan"
}